#comment...
# Board recalibrated on November 2016
#
cell 043, 1.005, -6.851, 1.002, -2.679
cell 044, 1.005, -7.736, 0.999, 2.144
cell 045, 1.002, -3.304, 0.998, 1.856
cell 046, 1.003, -4.771, 1.002, -2.807
cell 047, 1.002, -2.451, 1.001, -1.505
cell 048, 1.000, 0.019, 1.002, -2.683
cell 049, 1.003, -4.480, 1.002, -2.858
cell 050, 1.001, -1.682, 0.999, 2.804
cell 051, 1.002, -3.176, 1.005, -7.681
cell 052, 1.004, -4.962, 1.000, 0.628
cell 053, 1.004, -6.037, 1.001, -1.796
cell 054, 1.003, -5.233, 1.003, -4.470
cell 055, 1.004, -5.194, 0.999, 1.663
cell 056, 1.003, -5.091, 0.995, 6.667
cell 057, 1.000, 0.734, 0.997, 3.980
cell 058, 1.001, -1.183, 0.997, 4.385
cell 059, 1.004, -5.746, 0.997, 4.047
cell 060, 0.999, 1.743, 1.002, -3.516
cell 061, 1.004, -6.128, 1.001, -0.977
cell 062, 1.001, -1.918, 0.998, 2.903
cell 063, 0.999, 1.199, 0.992, 10.607