# comment...
cell 022, 1.012666667, 5.133333333, 1.018104017, 3.65373008
cell 023, 1.006666667, 1.133333333, 1.02933775, 3.333414557
cell 024, 1.014, -4.8, 1.021893491, 3.095088757
cell 025, 1.009111111, -1.044444444, 1.024267784, 6.269788805
cell 026, 1.014444444, 3.422222222, 1.018833515, 2.844159294
cell 027, 1.009555556, 1.177777778, 1.021191944, 5.651428835
cell 028, 1.013777778, -1.311111111, 1.022117495, 1.283438664
cell 029, 1.019555556, -7.922222222, 1.016325197, 4.661553409
cell 030, 1.012666667, -1.066666667, 1.023238975, 3.664785583
cell 031, 1.012222222, 0.111111111, 1.02107025, 3.587385359
cell 032, 1.012444444, 5.522222222, 1.020895522, 1.669055388
cell 033, 1.013555556, -2.822222222, 1.022341592, 1.951941187
cell 034, 1.013111111, -0.844444444, 1.022790087, 0.103687418
cell 035, 1.012888889, 1.744444444, 1.023014479, 0.615410065
cell 036, 1.008888889, 1.144444444, 1.024493391, 3.327526222
cell 037, 1.007333333, 4.666666667, 1.028656517, 1.279605577
cell 038, 1.015777778, -1.311111111, 1.020154236, 4.183364608
cell 039, 1.010444444, 1.022222222, 1.022916208, 5.731019648
cell 040, 1.016, -2.2, 1.019931102, 2.459681759
cell 041, 1.010444444, 0.722222222, 1.025538816, 2.981833719
cell 042, 1.014888889, -0.355555556, 1.018436609, 6.088779441
