# comment...
cell 022, 1.0, 0.0, 1.0, 0.0
cell 023, 1.0, 0.0, 1.0, 0.0
cell 024, 1.0, 0.0, 1.0, 0.0
cell 025, 1.0, 0.0, 1.0, 0.0
cell 026, 1.0, 0.0, 1.0, 0.0
cell 027, 1.0, 0.0, 1.0, 0.0
cell 028, 1.0, 0.0, 1.0, 0.0
cell 029, 1.0, 0.0, 1.0, 0.0
cell 030, 1.0, 0.0, 1.0, 0.0
cell 031, 1.0, 0.0, 1.0, 0.0
cell 032, 1.0, 0.0, 1.0, 0.0
cell 033, 1.0, 0.0, 1.0, 0.0
cell 034, 1.0, 0.0, 1.0, 0.0
cell 035, 1.0, 0.0, 1.0, 0.0
cell 036, 1.0, 0.0, 1.0, 0.0
cell 037, 1.0, 0.0, 1.0, 0.0
cell 038, 1.0, 0.0, 1.0, 0.0
cell 039, 1.0, 0.0, 1.0, 0.0
cell 040, 1.0, 0.0, 1.0, 0.0
cell 041, 1.0, 0.0, 1.0, 0.0
cell 042, 1.0, 0.0, 1.0, 0.0
