# comment...
# cell 004 recalibrated
# cell 008 recalibrated
# cell 017 recalibrated
# cell 010 exchanged
cell 001, 1.003, 1.571, 1.030, 0.229
cell 002, 1.011, 3.286, 1.024, -0.907
cell 003, 1.014, -2.143, 1.022, -0.285
cell 004, 1.024, -17.445, 1.021, 1.114
cell 005, 1.003, 1.571, 1.033, -1.795
cell 006, 1.009, 0.714, 1.027, 1.724
cell 007, 1.011, 2.286, 1.024, -0.369
cell 008, 1.004, 10.269, 1.020, 3.030
cell 009, 1.011, -3.714, 1.024, 2.050
cell 010, 1.015, -0.369, 1.021, -0.083
cell 011, 1.011, -5.714, 1.024, 4.661
cell 012, 1.009, 4.714, 1.028, -4.693
cell 013, 1.009, -6.286, 1.030, -0.417
cell 014, 1.014, -4.143, 1.024, -2.161
cell 015, 1.006, 2.143, 1.030, -1.329
cell 016, 1.011, -4.714, 1.027, 0.018
cell 017, 1.004, 10.269, 1.020, 5.134
cell 018, 1.009, -1.286, 1.027, -1.483
cell 019, 1.006, -2.857, 1.031, 0.470
cell 020, 1.006, -1.857, 1.031, -0.041
cell 021, 1.009, -4.286, 1.027, 0.017
