# comment...
cell 001, 1.0, 0.0, 1.0, 0.0
cell 002, 1.0, 0.0, 1.0, 0.0
cell 003, 1.0, 0.0, 1.0, 0.0
cell 004, 1.0, 0.0, 1.0, 0.0
cell 005, 1.0, 0.0, 1.0, 0.0
cell 006, 1.0, 0.0, 1.0, 0.0
cell 007, 1.0, 0.0, 1.0, 0.0
cell 008, 1.0, 0.0, 1.0, 0.0
cell 009, 1.0, 0.0, 1.0, 0.0
cell 010, 1.0, 0.0, 1.0, 0.0
cell 011, 1.0, 0.0, 1.0, 0.0
cell 012, 1.0, 0.0, 1.0, 0.0
cell 013, 1.0, 0.0, 1.0, 0.0
cell 014, 1.0, 0.0, 1.0, 0.0
cell 015, 1.0, 0.0, 1.0, 0.0
cell 016, 1.0, 0.0, 1.0, 0.0
cell 017, 1.0, 0.0, 1.0, 0.0
cell 018, 1.0, 0.0, 1.0, 0.0
cell 019, 1.0, 0.0, 1.0, 0.0
cell 020, 1.0, 0.0, 1.0, 0.0
cell 021, 1.0, 0.0, 1.0, 0.0
