{
    ".": {
        "files": {
            ".cproject": {
                "must_be_versioned": true
            },
            ".gitignore": {
                "install": "ask_to_merge",
                "must_be_versioned": true
            },
            ".project": {
                "must_be_versioned": true
            },
            "CMakeLists.txt": {
                "install": "overwrite",
                "md5": "811696cceaf104d26cfdca43f7dd36d3",
                "must_be_versioned": true,
                "must_exist": true
            },
            "LICENSE.TXT": {
                "install": "overwrite",
                "md5": "e94f6920e0f51ea34f43be88dc810edc",
                "must_be_versioned": true,
                "must_exist": true
            },
            "ProjectSettings.cmake": {
                "install": "copy_if_not_existing",
                "must_be_versioned": true,
                "must_exist": true
            },
            "quasar.py": {
                "install": "overwrite",
                "md5": "3e585a9650b4226577cdefaff18f7ff3",
                "must_be_versioned": true,
                "must_exist": true
            }
        }
    },
    "AddressSpace": {
        "files": {
            "CMakeLists.txt": {
                "install": "overwrite",
                "md5": "fc09a1752eb2bf7105eabd40ffcc2b31",
                "must_be_versioned": true,
                "must_exist": true
            },
            "designToAddressSpaceDocHtml.xslt": {
                "deprecated": true
            },
            "designToClassBody.xslt": {
                "deprecated": true
            },
            "designToClassHeader.xslt": {
                "deprecated": true
            },
            "designToGeneratedCmakeAddressSpace.xslt": {
                "deprecated": true
            },
            "designToInformationModelBody.xslt": {
                "deprecated": true
            },
            "designToInformationModelHeader.xslt": {
                "deprecated": true
            },
            "designToSourceVariablesBody.xslt": {
                "deprecated": true
            },
            "designToSourceVariablesHeader.xslt": {
                "deprecated": true
            }
        },
        "install": "create"
    },
    "AddressSpace/include": {
        "file_defaults": {
            "install": "overwrite",
            "md5": "check",
            "must_be_versioned": true,
            "must_exist": true
        },
        "files": {
            "ASCommon.h": {
                "md5": "0a0f1a8d275f2b08c21fafd1889975c2",
                "use_defaults": "file_defaults_of_directory"
            },
            "ASDelegatingMethod.h": {
                "md5": "0dc0870b11971147c4b059113fd1de98",
                "use_defaults": "file_defaults_of_directory"
            },
            "ASDelegatingVariable.h": {
                "md5": "74a1eb20d237092be6b548c3ab9201f6",
                "use_defaults": "file_defaults_of_directory"
            },
            "ASNodeManager.h": {
                "md5": "aff3b8ca1f0d060716431020c3d2a2f4",
                "use_defaults": "file_defaults_of_directory"
            },
            "ASNodeQueries.h": {
                "md5": "e309cab9a9365be6a0ec2cf52155c62a",
                "use_defaults": "file_defaults_of_directory"
            },
            "ASSourceVariable.h": {
                "md5": "507e97d4c897cfea05c3aeed1c17490e",
                "use_defaults": "file_defaults_of_directory"
            },
            "ASSourceVariableIoManager.h": {
                "md5": "d9a88794a42551683bf7a8cb447b85c3",
                "use_defaults": "file_defaults_of_directory"
            },
            "ArrayTools.h": {
                "md5": "32130960fc20daf86516c9b5109b9af7",
                "use_defaults": "file_defaults_of_directory"
            },
            "ChangeNotifyingVariable.h": {
                "md5": "d185c3a42fe210ae4fef440e8ca5436c",
                "use_defaults": "file_defaults_of_directory"
            },
            "FreeVariablesEngine.h": {
                "md5": "b32367e0eeb6dc997b5a106db6fa5fe4",
                "use_defaults": "file_defaults_of_directory"
            }
        },
        "install": "create"
    },
    "AddressSpace/src": {
        "file_defaults": {
            "install": "overwrite",
            "md5": "check",
            "must_be_versioned": true,
            "must_exist": true
        },
        "files": {
            "ASNodeManager.cpp": {
                "md5": "6137e161b95ecc660ed8ea0e5a8d8479",
                "use_defaults": "file_defaults_of_directory"
            },
            "ASSourceVariableIoManager.cpp": {
                "md5": "7483add06e2e23e3ac74bbf8683894e3",
                "use_defaults": "file_defaults_of_directory"
            },
            "ArrayTools.cpp": {
                "md5": "aff77a60d97d43fbac661c57274cdf97",
                "use_defaults": "file_defaults_of_directory"
            },
            "ChangeNotifyingVariable.cpp": {
                "md5": "aa4aa02f5cd84c4cdc3706d8f68b3945",
                "use_defaults": "file_defaults_of_directory"
            },
            "FreeVariablesEngine.cpp": {
                "md5": "655bf753ed02d46320f75574c61bf6f4",
                "use_defaults": "file_defaults_of_directory"
            }
        },
        "install": "create"
    },
    "AddressSpace/templates": {
        "file_defaults": {
            "install": "overwrite",
            "md5": "check",
            "must_be_versioned": true,
            "must_exist": true
        },
        "files": {
            "designToAddressSpaceDocHtml.jinja": {
                "md5": "bc8d376e1547795e3e44c38fc094f74c",
                "use_defaults": "file_defaults_of_directory"
            },
            "designToClassBody.jinja": {
                "md5": "62428de2b9a40d0b4056be743fdf4adc",
                "use_defaults": "file_defaults_of_directory"
            },
            "designToClassHeader.jinja": {
                "md5": "fb6991af4159e05f917ff5832743a838",
                "use_defaults": "file_defaults_of_directory"
            },
            "designToGeneratedCmakeAddressSpace.jinja": {
                "md5": "7193b8aa7b88a74cf03b2590ee63f236",
                "use_defaults": "file_defaults_of_directory"
            },
            "designToInformationModelBody.jinja": {
                "md5": "aec1b92e42d63cfbe98c22c8feac37cb",
                "use_defaults": "file_defaults_of_directory"
            },
            "designToInformationModelHeader.jinja": {
                "md5": "1f550cdec2c4d2601bcb482009c9df0d",
                "use_defaults": "file_defaults_of_directory"
            },
            "designToSourceVariablesBody.jinja": {
                "md5": "e93ec2f84d70ab71efbd9d164bac7142",
                "use_defaults": "file_defaults_of_directory"
            },
            "designToSourceVariablesHeader.jinja": {
                "md5": "0da157722c5e7cd15afc8051c62fe389",
                "use_defaults": "file_defaults_of_directory"
            }
        },
        "install": "create"
    },
    "CalculatedVariables": {
        "files": {
            "CMakeLists.txt": {
                "install": "overwrite",
                "md5": "81bd3c1a1496e0581626b359dafc783b",
                "must_be_versioned": true,
                "must_exist": true
            }
        },
        "install": "create"
    },
    "CalculatedVariables/ext_components": {
        "files": {},
        "install": "create"
    },
    "CalculatedVariables/ext_components/muparser-amalgamated": {
        "files": {},
        "install": "create"
    },
    "CalculatedVariables/ext_components/muparser-amalgamated/include": {
        "files": {
            "muParser.h": {
                "install": "overwrite",
                "md5": "568d5af28b6a31018a5e03fab509865e",
                "must_be_versioned": true,
                "must_exist": true
            }
        },
        "install": "create"
    },
    "CalculatedVariables/ext_components/muparser-amalgamated/src": {
        "files": {
            "muParser.cpp": {
                "install": "overwrite",
                "md5": "765649e32515ad74ab804ce7554d76e5",
                "must_be_versioned": true,
                "must_exist": true
            }
        },
        "install": "create"
    },
    "CalculatedVariables/include": {
        "file_defaults": {
            "install": "overwrite",
            "md5": "check",
            "must_be_versioned": true,
            "must_exist": true
        },
        "files": {
            "CalculatedVariable.h": {
                "md5": "dbe753f5e3459752863145b61729fa85",
                "use_defaults": "file_defaults_of_directory"
            },
            "CalculatedVariablesChangeListener.h": {
                "md5": "eaec7b8657019c9906b893cebd2e182e",
                "use_defaults": "file_defaults_of_directory"
            },
            "CalculatedVariablesEngine.h": {
                "md5": "2279474a0d36f1855acee8735198bae3",
                "use_defaults": "file_defaults_of_directory"
            },
            "CalculatedVariablesLogComponentId.h": {
                "md5": "7a62c8a7bc33f03b23dae4733104bfa4",
                "use_defaults": "file_defaults_of_directory"
            },
            "ParserVariable.h": {
                "md5": "1a2d0983324f03281f7c0f43efc2e5ed",
                "use_defaults": "file_defaults_of_directory"
            },
            "ParserVariableRequestUserData.h": {
                "md5": "7a32d1e18d6c2fe3ece297903e9d32c7",
                "use_defaults": "file_defaults_of_directory"
            }
        },
        "install": "create"
    },
    "CalculatedVariables/src": {
        "file_defaults": {
            "install": "overwrite",
            "md5": "check",
            "must_be_versioned": true,
            "must_exist": true
        },
        "files": {
            "CalculatedVariable.cpp": {
                "md5": "09dd31fd2be20492c9ccfaf837b469d2",
                "use_defaults": "file_defaults_of_directory"
            },
            "CalculatedVariablesChangeListener.cpp": {
                "md5": "1d94a8cd051f2ebbf1ac693f853f438f",
                "use_defaults": "file_defaults_of_directory"
            },
            "CalculatedVariablesEngine.cpp": {
                "md5": "59e3ee07e0e7596eb2524ba63fb12887",
                "use_defaults": "file_defaults_of_directory"
            },
            "ParserVariable.cpp": {
                "md5": "fd7f340073d365a4be61478f18751829",
                "use_defaults": "file_defaults_of_directory"
            }
        },
        "install": "create"
    },
    "Common": {
        "files": {
            "CMakeLists.txt": {
                "install": "ask_to_merge",
                "must_be_versioned": true,
                "must_exist": true
            }
        },
        "install": "create"
    },
    "Common/include": {
        "file_defaults": {
            "install": "overwrite",
            "md5": "check",
            "must_be_versioned": true,
            "must_exist": true
        },
        "files": {
            "ASUtils.h": {
                "md5": "709ac553dc64d3b1b8046151015b4fae",
                "use_defaults": "file_defaults_of_directory"
            },
            "QuasarThreadPool.h": {
                "md5": "0ad5a59b587f9b39aa8e3ed699fb0fc0",
                "use_defaults": "file_defaults_of_directory"
            },
            "Utils.h": {
                "md5": "81aa56e57b8bf5f385115dff3f98f8e0",
                "use_defaults": "file_defaults_of_directory"
            }
        },
        "install": "create"
    },
    "Common/src": {
        "file_defaults": {
            "install": "ask_to_merge",
            "md5": "check",
            "must_be_versioned": true,
            "must_exist": true
        },
        "files": {
            "ASUtils.cpp": {
                "md5": "61622fac476c3ea0c293292644ccce2a",
                "use_defaults": "file_defaults_of_directory"
            },
            "QuasarThreadPool.cpp": {
                "md5": "124a51ad46e6c7b14a06a887291ab3df",
                "use_defaults": "file_defaults_of_directory"
            }
        },
        "install": "create"
    },
    "Common/templates": {
        "files": {
            "headers.jinja": {
                "install": "overwrite",
                "md5": "19f88bfd34f1661592d43d07c4dced08",
                "must_be_versioned": true,
                "must_exist": true
            }
        },
        "install": "create"
    },
    "Configuration": {
        "files": {
            "CMakeLists.txt": {
                "install": "overwrite",
                "md5": "626ab0174614fc11403e1445cef714e4",
                "must_be_versioned": true,
                "must_exist": true
            },
            "Configurator.h": {
                "install": "overwrite",
                "md5": "9835225a109f46ed3e729d08f174e1e7",
                "must_be_versioned": true,
                "must_exist": true
            },
            "designToConfigDocumentationHtml.xslt": {
                "deprecated": true
            },
            "designToConfigValidator.xslt": {
                "deprecated": true
            },
            "designToConfigurationXSD.xslt": {
                "deprecated": true
            },
            "designToConfigurator.xslt": {
                "deprecated": true
            }
        },
        "install": "create"
    },
    "Configuration/include": {
        "files": {
            "ConfigurationDecorationUtils.h": {
                "install": "overwrite",
                "md5": "50e80064212c6e580c8d60fbef9e4c22",
                "must_be_versioned": true,
                "must_exist": true
            }
        },
        "install": "create"
    },
    "Configuration/templates": {
        "file_defaults": {
            "install": "overwrite",
            "md5": "check",
            "must_be_versioned": true,
            "must_exist": true
        },
        "files": {
            "designToConfigDocumentationHtml.jinja": {
                "md5": "d83dafe6d98c62c6e88f97a542253399",
                "use_defaults": "file_defaults_of_directory"
            },
            "designToConfigValidator.jinja": {
                "md5": "3b6e265de3b2bc49588b4b43b5a301aa",
                "use_defaults": "file_defaults_of_directory"
            },
            "designToConfigurationXSD.jinja": {
                "md5": "e7cfd2739428181ed49985f014f57b47",
                "use_defaults": "file_defaults_of_directory"
            },
            "designToConfigurator.jinja": {
                "md5": "a0c21f96093977ae15d85d1a0b6cce02",
                "use_defaults": "file_defaults_of_directory"
            }
        },
        "install": "create"
    },
    "Design": {
        "files": {
            "CommonFunctions.xslt": {
                "deprecated": true
            },
            "Design.xml": {
                "install": "copy_if_not_existing",
                "must_be_versioned": true,
                "must_exist": true
            },
            "Design.xsd": {
                "install": "overwrite",
                "md5": "502ef266cdf5cbe700665316610ad2ff",
                "must_be_versioned": true,
                "must_exist": true
            },
            "designToDot.xslt": {
                "deprecated": true
            },
            "designToUpgradedDesign.xslt": {
                "deprecated": true
            },
            "designValidation.xslt": {
                "deprecated": true
            },
            "quasarVersion.txt": {
                "install": "overwrite",
                "md5": "c704df9608161af836391373ea2d4c6d",
                "must_be_versioned": true,
                "must_exist": true
            },
            "saxon9he.jar": {
                "deprecated": true
            },
            "schema-for-xslt20.xsd": {
                "deprecated": true
            }
        },
        "install": "create"
    },
    "Design/templates": {
        "files": {
            "designToDot.jinja": {
                "install": "overwrite",
                "md5": "bce2b6f27e669733445af4ba8b5c96f6",
                "must_be_versioned": true,
                "must_exist": true
            }
        },
        "install": "create"
    },
    "Device": {
        "files": {
            "CMakeLists.txt": {
                "install": "overwrite",
                "must_be_versioned": true,
                "must_exist": true
            },
            "DeviceCustom.cmake": {
                "install": "copy_if_not_existing",
                "must_be_versioned": true,
                "must_exist": true
            },
            "designToDeviceBaseBody.xslt": {
                "deprecated": true
            },
            "designToDeviceBaseHeader.xslt": {
                "deprecated": true
            },
            "designToDeviceBody.xslt": {
                "deprecated": true
            },
            "designToDeviceHeader.xslt": {
                "deprecated": true
            },
            "designToGeneratedCmakeDevice.xslt": {
                "deprecated": true
            },
            "designToRootBody.xslt": {
                "deprecated": true
            },
            "designToRootHeader.xslt": {
                "deprecated": true
            }
        },
        "install": "create"
    },
    "Device/generated": {
        "files": {},
        "install": "create"
    },
    "Device/include": {
        "files": {},
        "install": "create"
    },
    "Device/src": {
        "files": {},
        "install": "create"
    },
    "Device/templates": {
        "file_defaults": {
            "install": "overwrite",
            "md5": "check",
            "must_be_versioned": true,
            "must_exist": true
        },
        "files": {
            "commonDeviceTemplates.jinja": {
                "md5": "8464347ffc4ee581005d18f1013a5a66",
                "use_defaults": "file_defaults_of_directory"
            },
            "designToDeviceBaseBody.jinja": {
                "md5": "47cf90848dc6216f1a62e5237891bde0",
                "use_defaults": "file_defaults_of_directory"
            },
            "designToDeviceBaseHeader.jinja": {
                "md5": "ebc35a0ce2648d632fae75d8e7a8b910",
                "use_defaults": "file_defaults_of_directory"
            },
            "designToDeviceBody.jinja": {
                "md5": "462f7023e9705c4e6b0138e47fcc6a04",
                "use_defaults": "file_defaults_of_directory"
            },
            "designToDeviceHeader.jinja": {
                "md5": "1e4dcf41f6ce28b26b9a88878fafa49a",
                "use_defaults": "file_defaults_of_directory"
            },
            "designToGeneratedCmakeDevice.jinja": {
                "md5": "47eb906e35034b33a176893a88e834c3",
                "use_defaults": "file_defaults_of_directory"
            },
            "designToRootBody.jinja": {
                "md5": "e8a063423460d46ab272c2b66b3c8afa",
                "use_defaults": "file_defaults_of_directory"
            },
            "designToRootHeader.jinja": {
                "md5": "5e3e2d69ba9bd55349989dec963590b0",
                "use_defaults": "file_defaults_of_directory"
            }
        },
        "install": "create"
    },
    "Documentation": {
        "files": {
            "AlternativeBackends.html": {
                "install": "overwrite",
                "must_be_versioned": true,
                "must_exist": true
            },
            "ChangeLog.html": {
                "install": "overwrite",
                "md5": "8e3a9122f511a499c943dc673da0abcb",
                "must_be_versioned": true,
                "must_exist": true
            },
            "DesignManual.html": {
                "install": "overwrite",
                "md5": "c6d41c25769ca569097dc8a494f77554",
                "must_be_versioned": true,
                "must_exist": true
            },
            "Doxyfile": {
                "install": "ask_to_merge",
                "md5": "e3b7e170213293a2d316c14af04ccc7f",
                "must_be_versioned": true,
                "must_exist": true
            },
            "UserDefinedCommandLineParameters.html": {
                "install": "overwrite",
                "must_be_versioned": true,
                "must_exist": true
            },
            "UserDefinedRuntimeConfigurationModification.html": {
                "install": "overwrite",
                "must_be_versioned": true,
                "must_exist": true
            },
            "WindowsSetup.html": {
                "install": "overwrite",
                "md5": "3e42c37ba86957ab080f49ef7d774075",
                "must_be_versioned": true,
                "must_exist": true
            },
            "diagram.png": {
                "install": "overwrite",
                "md5": "e6c4149e7e27922ff30a4515e0f5c01b",
                "must_be_versioned": true,
                "must_exist": true
            },
            "enice_win_configuration.cmake": {
                "install": "overwrite",
                "md5": "9e412dee018c33142380e96c50310a4c",
                "must_be_versioned": true,
                "must_exist": true
            },
            "quasar.html": {
                "install": "overwrite",
                "md5": "fe74705f4620ab0802faecec46610b2d",
                "must_be_versioned": true,
                "must_exist": true
            },
            "quasarCommands.html": {
                "install": "overwrite",
                "md5": "40492f6a0d89db69ba322ef898d7befd",
                "must_be_versioned": true,
                "must_exist": true
            },
            "transformations.pdf": {
                "install": "overwrite",
                "md5": "276020b9e012b694d1456538851809b9",
                "must_be_versioned": true,
                "must_exist": true
            },
            "youtube_links.html": {
                "install": "overwrite",
                "md5": "582a09eb71e2fa388e22096b65c2dd94",
                "must_be_versioned": true,
                "must_exist": true
            }
        },
        "install": "create"
    },
    "Documentation/DoxygenGenerated": {
        "files": {},
        "install": "create"
    },
    "Documentation/images": {
        "files": {
            "quasar_engine_small_smooth_square_128x128.png": {
                "install": "overwrite",
                "md5": "eaee3dcca045eb7f3f45f87c0712ad71",
                "must_be_versioned": true,
                "must_exist": true
            }
        },
        "install": "create"
    },
    "Extra": {
        "files": {
            "designToHonkyTonk.xslt": {
                "deprecated": true
            }
        },
        "install": "create"
    },
    "FrameworkInternals": {
        "files": {
            "BoostSetup.cmake": {
                "install": "overwrite",
                "md5": "3088343d05754c66b7940a1fceb1121f",
                "must_be_versioned": true,
                "must_exist": true
            },
            "DesignInspector.py": {
                "install": "overwrite",
                "md5": "1960ce6d7fdfc9c4bc46ad0dd090fbda",
                "must_be_versioned": true,
                "must_exist": true
            },
            "DesignValidator.py": {
                "install": "overwrite",
                "md5": "b796fafc1fb2372940caab17d006bb7c",
                "must_be_versioned": true,
                "must_exist": true
            },
            "OptionalModule.cmake": {
                "install": "overwrite",
                "md5": "996314c29c74bc7903c0665b45d643be",
                "must_be_versioned": true,
                "must_exist": true
            },
            "OptionalModules.cmake": {
                "install": "overwrite",
                "md5": "c1050f6a75b56c6ce322111a776d86f2",
                "must_be_versioned": true,
                "must_exist": true
            },
            "Oracle.py": {
                "install": "overwrite",
                "md5": "77483dce48acafb165eae55c57e64f6e",
                "must_be_versioned": true,
                "must_exist": true
            },
            "UrlHandling.cmake": {
                "install": "overwrite",
                "md5": "4178cfc5add9d303f486e43f48716a2b",
                "must_be_versioned": true,
                "must_exist": true
            },
            "addressSpaceGenerators.py": {
                "install": "overwrite",
                "md5": "780020cb5417a6e92c547bfb0bf23801",
                "must_be_versioned": true,
                "must_exist": true
            },
            "astyleSubstitute.py": {
                "deprecated": true
            },
            "automated_build.py": {
                "install": "overwrite",
                "md5": "d14c2883d73dfbcb0bd1da4cd78786cf",
                "must_be_versioned": true,
                "must_exist": true
            },
            "commandMap.py": {
                "install": "overwrite",
                "md5": "fd8abd5ae39820969359ec2f54df42a1",
                "must_be_versioned": true,
                "must_exist": true
            },
            "configurationGenerators.py": {
                "install": "overwrite",
                "md5": "9d2ff2be8a55a53d118c778d05af3852",
                "must_be_versioned": true,
                "must_exist": true
            },
            "default_configuration.cmake": {
                "install": "overwrite",
                "md5": "e63f3a5aa78af28b84e1f4a9cdb2f6c9",
                "must_be_versioned": true,
                "must_exist": true
            },
            "designTools.py": {
                "install": "overwrite",
                "md5": "d76ad22236408165d90a571078111f12",
                "must_be_versioned": true,
                "must_exist": true
            },
            "deviceGenerators.py": {
                "install": "overwrite",
                "md5": "aaa8e254309aada48c2949ea8b488939",
                "must_be_versioned": true,
                "must_exist": true
            },
            "distclean.py": {
                "install": "overwrite",
                "md5": "c22e16cdf6bf5e4b8f1f86bb97bcdebe",
                "must_be_versioned": true,
                "must_exist": true
            },
            "externalToolCheck.py": {
                "install": "overwrite",
                "md5": "9fb39e14ae1fc68518f1902b052f21f4",
                "must_be_versioned": true,
                "must_exist": true
            },
            "files.txt": {
                "install": "overwrite",
                "must_be_versioned": true,
                "must_exist": true
            },
            "generateCmake.py": {
                "install": "overwrite",
                "md5": "a796009bec788f624275802e1dc7d9f3",
                "must_be_versioned": true,
                "must_exist": true
            },
            "generateHonkyTonk.py": {
                "install": "overwrite",
                "md5": "d41d8cd98f00b204e9800998ecf8427e",
                "must_be_versioned": true,
                "must_exist": true
            },
            "install_framework.py": {
                "install": "overwrite",
                "md5": "a751091fd34cc134262d654e6a1b85bb",
                "must_be_versioned": true,
                "must_exist": true
            },
            "manage_files.py": {
                "install": "overwrite",
                "md5": "2764cbc6e0363c397c398869b4fe4dd0",
                "must_be_versioned": true,
                "must_exist": true
            },
            "meta_build_info.py": {
                "install": "overwrite",
                "md5": "22a46ccc2be9cbbf46d3e61d7e40d073",
                "must_be_versioned": true,
                "must_exist": true
            },
            "optionalModules.py": {
                "install": "overwrite",
                "md5": "e1f5d0bba4bcf181554c6f9795b13bd0",
                "must_be_versioned": true,
                "must_exist": true
            },
            "quasarCommands.py": {
                "install": "overwrite",
                "md5": "e24d551e7aa34f66c65e63b83ecd9a50",
                "must_be_versioned": true,
                "must_exist": true
            },
            "quasarExceptions.py": {
                "install": "overwrite",
                "md5": "a061303c2f34786aa862df43f9881190",
                "must_be_versioned": true,
                "must_exist": true
            },
            "quasar_basic_utils.py": {
                "install": "overwrite",
                "md5": "c877219edb05d8e7021224f7bebf7ead",
                "must_be_versioned": true,
                "must_exist": true
            },
            "quasar_utils.py": {
                "install": "overwrite",
                "md5": "51dfb8f4f2b45da28da82e8d4aa72334",
                "must_be_versioned": true,
                "must_exist": true
            },
            "runDoxygen.py": {
                "install": "overwrite",
                "md5": "9344b88e33a2c721610bed23ac072b24",
                "must_be_versioned": true,
                "must_exist": true
            },
            "transformDesign.py": {
                "install": "overwrite",
                "md5": "c51a23be18bc77519fdf6f2a7f7ff986",
                "must_be_versioned": true,
                "must_exist": true
            },
            "transform_filters.py": {
                "install": "overwrite",
                "md5": "1a0a249a1fc3d2a9d4ca9cbbe53e6d94",
                "must_be_versioned": true,
                "must_exist": true
            },
            "version_control_interface.py": {
                "install": "overwrite",
                "md5": "fd3aad48b296228d6eba3b6e6887e551",
                "must_be_versioned": true,
                "must_exist": true
            }
        },
        "install": "create"
    },
    "LogIt": {
        "files": {
            "CMakeLists.txt": {
                "install": "overwrite",
                "md5": "448296a8d229e96d95ae1833afa5a62a",
                "must_be_versioned": true,
                "must_exist": true
            }
        },
        "install": "create"
    },
    "LogIt/include": {
        "file_defaults": {
            "install": "overwrite",
            "md5": "check",
            "must_be_versioned": true,
            "must_exist": true
        },
        "files": {
            "BoostRotatingFileLog.h": {
                "md5": "20b1d148d8d29d886bddb08921dd588a",
                "use_defaults": "file_defaults_of_directory"
            },
            "ComponentAttributes.h": {
                "md5": "f573ed84e46e0ffc6c8b898a91c2cc22",
                "use_defaults": "file_defaults_of_directory"
            },
            "LogIt.h": {
                "md5": "cc0dda7cb0db5cb2c340f55e8aa573d9",
                "use_defaults": "file_defaults_of_directory"
            },
            "LogItInstance.h": {
                "md5": "2098ced51bc7ae66e8d538b859bb8e69",
                "use_defaults": "file_defaults_of_directory"
            },
            "LogItStaticDefinitions.h": {
                "md5": "1419053a90759ff2592dce3f3b7e05e0",
                "use_defaults": "file_defaults_of_directory"
            },
            "LogLevels.h": {
                "md5": "bb938b8b83ceca8a7da372f3ee318651",
                "use_defaults": "file_defaults_of_directory"
            },
            "LogRecord.h": {
                "md5": "d922832aad140afb40a86820fb1b0baf",
                "use_defaults": "file_defaults_of_directory"
            },
            "LogSinkInterface.h": {
                "md5": "aacede0bc224c07148bdaf57097312da",
                "use_defaults": "file_defaults_of_directory"
            },
            "LogSinks.h": {
                "md5": "f87aaababfef5ed02a82095357dc75f5",
                "use_defaults": "file_defaults_of_directory"
            },
            "StdOutLog.h": {
                "md5": "80f0968b8d1eee8d807c3a84b17b6ddf",
                "use_defaults": "file_defaults_of_directory"
            },
            "UaTraceSink.h": {
                "md5": "4b5ef9ae295b67b518d979b4ef05ac05",
                "use_defaults": "file_defaults_of_directory"
            },
            "WindowsDebuggerSink.h": {
                "md5": "656dc27b6a7f60673ecf0bed99013c86",
                "use_defaults": "file_defaults_of_directory"
            }
        },
        "install": "create"
    },
    "LogIt/src": {
        "file_defaults": {
            "install": "overwrite",
            "md5": "check",
            "must_be_versioned": true,
            "must_exist": true
        },
        "files": {
            "BoostRotatingFileLog.cpp": {
                "md5": "5ee758876d7962710cbbe873bf009539",
                "use_defaults": "file_defaults_of_directory"
            },
            "ComponentAttributes.cpp": {
                "md5": "097d87cbe2945a141b57f13255a2395e",
                "use_defaults": "file_defaults_of_directory"
            },
            "LogIt.cpp": {
                "md5": "c66a37a8a0c5cc5ace0e86e941021d5b",
                "use_defaults": "file_defaults_of_directory"
            },
            "LogItInstance.cpp": {
                "md5": "727d655738b4b57cc064519fadc7c18b",
                "use_defaults": "file_defaults_of_directory"
            },
            "LogLevels.cpp": {
                "md5": "b5b5df0639ce05a6024381365ed81ed9",
                "use_defaults": "file_defaults_of_directory"
            },
            "LogRecord.cpp": {
                "md5": "6fb5fe9f9f9dfc38eddd9e1f35704ffe",
                "use_defaults": "file_defaults_of_directory"
            },
            "LogSinks.cpp": {
                "md5": "237c89a6304fb5fbf009fe3265b8a553",
                "use_defaults": "file_defaults_of_directory"
            },
            "StdOutLog.cpp": {
                "md5": "e257c3384ca8682a2d3923b24fe15889",
                "use_defaults": "file_defaults_of_directory"
            },
            "UaTraceSink.cpp": {
                "md5": "cf0c36d77ae170f2eb3b2229bc8f0a06",
                "use_defaults": "file_defaults_of_directory"
            },
            "WindowsDebuggerSink.cpp": {
                "md5": "fdad052fd9126153bd4e1474259827e2",
                "use_defaults": "file_defaults_of_directory"
            }
        },
        "install": "create"
    },
    "Meta": {
        "files": {
            "CMakeLists.txt": {
                "install": "overwrite",
                "md5": "3df2c83140fa9d2781b452d20170f90d",
                "must_be_versioned": true,
                "must_exist": true
            }
        },
        "install": "create"
    },
    "Meta/config": {
        "files": {
            "Meta.xsd": {
                "install": "overwrite",
                "md5": "5cc019226f9f246516485873433fe604",
                "must_be_versioned": true,
                "must_exist": true
            }
        },
        "install": "create"
    },
    "Meta/include": {
        "file_defaults": {
            "install": "overwrite",
            "md5": "check",
            "must_be_versioned": true,
            "must_exist": true
        },
        "files": {
            "ASBuildInformation.h": {
                "md5": "ccae583fe19c78f76e945018523b0d7e",
                "use_defaults": "file_defaults_of_directory"
            },
            "ASComponentLogLevel.h": {
                "md5": "f00c029b42f54d89cbc40e9779713816",
                "use_defaults": "file_defaults_of_directory"
            },
            "ASComponentLogLevels.h": {
                "md5": "e404acd257b0001a4e8e74ee50635835",
                "use_defaults": "file_defaults_of_directory"
            },
            "ASGeneralLogLevel.h": {
                "md5": "439fc4b0c56481fd3fa7093660cf4682",
                "use_defaults": "file_defaults_of_directory"
            },
            "ASLog.h": {
                "md5": "8a858ffcb70396ce72e5af583265fff6",
                "use_defaults": "file_defaults_of_directory"
            },
            "ASQuasar.h": {
                "md5": "577359ea3b2ec791dcc3af0a9b16cd1a",
                "use_defaults": "file_defaults_of_directory"
            },
            "ASServer.h": {
                "md5": "77552ada0fe765e3c1c432fc6cb437d0",
                "use_defaults": "file_defaults_of_directory"
            },
            "ASSourceVariableThreadPool.h": {
                "md5": "7832b3b6d98fea44f7ed57d5cda26613",
                "use_defaults": "file_defaults_of_directory"
            },
            "ASStandardMetaData.h": {
                "md5": "132d527ccd44322810a1ac6f0d952b86",
                "use_defaults": "file_defaults_of_directory"
            },
            "Base_DBuildInformation.h": {
                "md5": "ae1cc3dab44d9ec6b6419f90c192f593",
                "use_defaults": "file_defaults_of_directory"
            },
            "Base_DComponentLogLevel.h": {
                "md5": "93e5ace9dddc939328e70843ebed62b5",
                "use_defaults": "file_defaults_of_directory"
            },
            "Base_DGeneralLogLevel.h": {
                "md5": "39f0ea0e0576280b9c5a1b14cfbe44c7",
                "use_defaults": "file_defaults_of_directory"
            },
            "Base_DQuasar.h": {
                "md5": "dba02f77d7db531d100193ad7efd12e2",
                "use_defaults": "file_defaults_of_directory"
            },
            "Base_DServer.h": {
                "md5": "cd01e9fef2c2c32b0447d917609574cf",
                "use_defaults": "file_defaults_of_directory"
            },
            "Base_DSourceVariableThreadPool.h": {
                "md5": "7052a831e38ff87c4085022e9a57cb62",
                "use_defaults": "file_defaults_of_directory"
            },
            "Base_DStandardMetaData.h": {
                "md5": "39c8dcb727d1bceab2382619f597cc99",
                "use_defaults": "file_defaults_of_directory"
            },
            "Certificate.h": {
                "md5": "2fadf4126f0c50def33fb0d361028143",
                "use_defaults": "file_defaults_of_directory"
            },
            "DBuildInformation.h": {
                "md5": "cdf7f2135f53ae2951df3bd03c0f7500",
                "use_defaults": "file_defaults_of_directory"
            },
            "DComponentLogLevel.h": {
                "md5": "00eb4ac9962215e04ef4b6ae63c353f2",
                "use_defaults": "file_defaults_of_directory"
            },
            "DGeneralLogLevel.h": {
                "md5": "68273ac7a2f63172c06442c1dcd400f6",
                "use_defaults": "file_defaults_of_directory"
            },
            "DQuasar.h": {
                "md5": "23606cf6f8a8c42ffbdab4142f663047",
                "use_defaults": "file_defaults_of_directory"
            },
            "DServer.h": {
                "md5": "773cb528e18bff035452fc638707a5d4",
                "use_defaults": "file_defaults_of_directory"
            },
            "DSourceVariableThreadPool.h": {
                "md5": "378b1767dbaadb18c7b0944e4a6bd80b",
                "use_defaults": "file_defaults_of_directory"
            },
            "DStandardMetaData.h": {
                "md5": "ae80a7e23cc7c3358e3162bb11610bb8",
                "use_defaults": "file_defaults_of_directory"
            },
            "MetaBuildInfo.h": {
                "md5": "6e13f222dc2ec1900abfd8bc8e0f581f",
                "use_defaults": "file_defaults_of_directory"
            },
            "MetaUtils.h": {
                "md5": "e40ed59979d494df1fe41d9846606e36",
                "use_defaults": "file_defaults_of_directory"
            },
            "meta.h": {
                "md5": "cedf4c8165a3c2cd79a8ec70269b33d7",
                "use_defaults": "file_defaults_of_directory"
            }
        },
        "install": "create"
    },
    "Meta/src": {
        "file_defaults": {
            "install": "overwrite",
            "md5": "check",
            "must_be_versioned": true,
            "must_exist": true
        },
        "files": {
            "ASBuildInformation.cpp": {
                "md5": "faccd7278c6904ce127f107fdd4110b1",
                "use_defaults": "file_defaults_of_directory"
            },
            "ASComponentLogLevel.cpp": {
                "md5": "6aea9ec37ca83450f1675da4084db2b2",
                "use_defaults": "file_defaults_of_directory"
            },
            "ASComponentLogLevels.cpp": {
                "md5": "dda420ecacbb988f0f8c0dd6f40fa8ea",
                "use_defaults": "file_defaults_of_directory"
            },
            "ASGeneralLogLevel.cpp": {
                "md5": "c5db6c1c453c5f92c7f6ef0697a7fb78",
                "use_defaults": "file_defaults_of_directory"
            },
            "ASLog.cpp": {
                "md5": "1dea7fbc9d757837db69d3a594f9953f",
                "use_defaults": "file_defaults_of_directory"
            },
            "ASQuasar.cpp": {
                "md5": "09b295d7586e19173a63ed55f312aa8a",
                "use_defaults": "file_defaults_of_directory"
            },
            "ASServer.cpp": {
                "md5": "fa327a11c7dea90fe0532e6887ba6608",
                "use_defaults": "file_defaults_of_directory"
            },
            "ASSourceVariableThreadPool.cpp": {
                "md5": "04702c7bc477bd64a619509034214a4a",
                "use_defaults": "file_defaults_of_directory"
            },
            "ASStandardMetaData.cpp": {
                "md5": "490cc78e6b805f1f31e65a909540d17e",
                "use_defaults": "file_defaults_of_directory"
            },
            "Base_DBuildInformation.cpp": {
                "md5": "438ef1cbec5ea2e59359f1624c2854d1",
                "use_defaults": "file_defaults_of_directory"
            },
            "Base_DComponentLogLevel.cpp": {
                "md5": "c90f0b4cc6968354e609a8426329ff5a",
                "use_defaults": "file_defaults_of_directory"
            },
            "Base_DGeneralLogLevel.cpp": {
                "md5": "ffe9a5a9fb1f8fc644164e03e6f5a21e",
                "use_defaults": "file_defaults_of_directory"
            },
            "Base_DQuasar.cpp": {
                "md5": "f8681a977414681666c54229e2a1b610",
                "use_defaults": "file_defaults_of_directory"
            },
            "Base_DServer.cpp": {
                "md5": "56bbec0b1671d0bde2f823a83ff6c622",
                "use_defaults": "file_defaults_of_directory"
            },
            "Base_DSourceVariableThreadPool.cpp": {
                "md5": "4535387f49837ee8cdf095b21f6c42c7",
                "use_defaults": "file_defaults_of_directory"
            },
            "Base_DStandardMetaData.cpp": {
                "md5": "71c8013798743e91fd6d11a8bf2f2c7f",
                "use_defaults": "file_defaults_of_directory"
            },
            "Certificate.cpp": {
                "md5": "83e840290169608a050b779f733447dd",
                "use_defaults": "file_defaults_of_directory"
            },
            "DBuildInformation.cpp": {
                "md5": "ac6dcc4fa2cdf7f0a7847d967fa1c72c",
                "use_defaults": "file_defaults_of_directory"
            },
            "DComponentLogLevel.cpp": {
                "md5": "66af65ab70bdc5c88b6cb6bdcd3fc0e6",
                "use_defaults": "file_defaults_of_directory"
            },
            "DGeneralLogLevel.cpp": {
                "md5": "249093a89dd1237aad698112646ff9b9",
                "use_defaults": "file_defaults_of_directory"
            },
            "DQuasar.cpp": {
                "md5": "abb8187bc41d0c34107b928aae70420d",
                "use_defaults": "file_defaults_of_directory"
            },
            "DServer.cpp": {
                "md5": "73ff291f965a0062a0909a8f4ccc1579",
                "use_defaults": "file_defaults_of_directory"
            },
            "DSourceVariableThreadPool.cpp": {
                "md5": "96282fa2f2be30d53364472991103204",
                "use_defaults": "file_defaults_of_directory"
            },
            "DStandardMetaData.cpp": {
                "md5": "bdcf9c25c3faf144ba707dca35ee6bd2",
                "use_defaults": "file_defaults_of_directory"
            },
            "MetaBuildInfo.cpp": {
                "md5": "076ba2da7ab7748cf4c3e816baf94d70",
                "use_defaults": "file_defaults_of_directory"
            },
            "MetaUtils.cpp": {
                "md5": "094ea494bfe50447ab09860fa2f27665",
                "use_defaults": "file_defaults_of_directory"
            },
            "meta.cpp": {
                "md5": "59e0712c22a797c0a75140bfea4dc857",
                "use_defaults": "file_defaults_of_directory"
            }
        },
        "install": "create"
    },
    "Server": {
        "files": {
            "CMakeLists.txt": {
                "install": "ask_to_merge",
                "must_be_versioned": true,
                "must_exist": true
            }
        },
        "install": "create"
    },
    "Server/include": {
        "files": {
            "BaseQuasarServer.h": {
                "install": "overwrite",
                "md5": "c38849a58f28a5921085f314533ca57d",
                "must_be_versioned": true,
                "must_exist": true
            },
            "QuasarServer.h": {
                "install": "copy_if_not_existing",
                "must_be_versioned": true,
                "must_exist": true
            },
            "QuasarServerCallback.h": {
                "install": "overwrite",
                "md5": "6207616adcced9d5c453e0287fd13519",
                "must_be_versioned": true,
                "must_exist": true
            },
            "QuasarVersion.h": {
                "install": "overwrite",
                "md5": "54e31f0b69f2d3f2dbc78a35efb578c9",
                "must_be_versioned": true,
                "must_exist": true
            },
            "opcserver.h": {
                "install": "overwrite",
                "md5": "297c613b100c21a9f3efea49208af2e6",
                "must_be_versioned": true,
                "must_exist": true
            },
            "opcserver_open62541.h": {
                "install": "overwrite",
                "md5": "2708d2ea9eecae58f2a9c79f1bffac62",
                "must_be_versioned": true,
                "must_exist": true
            },
            "serverconfigxml_quasar.h": {
                "install": "overwrite",
                "md5": "859b040e89669acdac69328822b7794d",
                "must_be_versioned": true,
                "must_exist": true
            },
            "shutdown.h": {
                "install": "overwrite",
                "md5": "260980700ecb7c3ad9ae6cc5050d801f",
                "must_be_versioned": true,
                "must_exist": true
            },
            "version.h": {
                "install": "overwrite",
                "md5": "2aaecb40cfbad26512d39261a0861190",
                "must_be_versioned": true,
                "must_exist": true
            }
        },
        "install": "create"
    },
    "Server/src": {
        "files": {
            "BaseQuasarServer.cpp": {
                "install": "overwrite",
                "md5": "887d79c2e641a66e879ef1a40305011b",
                "must_be_versioned": true,
                "must_exist": true
            },
            "QuasarServer.cpp": {
                "install": "copy_if_not_existing",
                "must_be_versioned": true,
                "must_exist": true
            },
            "QuasarServerCallback.cpp": {
                "install": "overwrite",
                "md5": "b75a291ae4da938e688f5fbbde9c9884",
                "must_be_versioned": true,
                "must_exist": true
            },
            "main.cpp": {
                "install": "ask_to_merge",
                "must_be_versioned": true,
                "must_exist": true
            },
            "opcserver.cpp": {
                "install": "overwrite",
                "md5": "c9d38acd76a94a6d16957493aae9d1e4",
                "must_be_versioned": true,
                "must_exist": true
            },
            "opcserver_open62541.cpp": {
                "install": "overwrite",
                "md5": "319059a7cbb2b08204f0a3fc6719c233",
                "must_be_versioned": true,
                "must_exist": true
            },
            "serverconfigxml.cpp": {
                "install": "overwrite",
                "md5": "a9e221b7b6010a4409c910cbe4b0688a",
                "must_be_versioned": true,
                "must_exist": true
            },
            "shutdown.cpp": {
                "install": "overwrite",
                "md5": "dc9444235de78cf99042136c5463e710",
                "must_be_versioned": true,
                "must_exist": true
            }
        },
        "install": "create"
    },
    "bin": {
        "files": {
            "ServerConfig.xml": {
                "install": "copy_if_not_existing",
                "must_be_versioned": true,
                "must_exist": true
            },
            "ServerConfig.xsd": {
                "install": "overwrite",
                "md5": "1b515543edbb1a1d1cc9650971685288",
                "must_be_versioned": true,
                "must_exist": true
            },
            "config.xml": {
                "install": "copy_if_not_existing"
            }
        },
        "install": "create"
    }
}